[
  {
    "id": "416205377130987530",
    "name": "Девочка",
    "color": "#E91E63"
  },
  {
    "id": "401054420642693130",
    "name": "JavaScript",
    "color": "#ffff00"
  },
  {
    "id": "400744145481891840",
    "name": "Back End",
    "color": "#E91E63"
  },
  {
    "id": "401054690160279557",
    "name": "Mysql",
    "color": "#ffcc66"
  },
  {
    "id": "401054919047512064",
    "name": "CSS",
    "color": "#66ccff"
  },
  {
    "id": "400744763998994432",
    "name": "Lvl 3",
    "color": "#1ABC9C"
  },
  {
    "id": "400744789760409620",
    "name": "Lvl 4",
    "color": "#1ABC9C"
  },
  {
    "id": "453786372919263232",
    "name": "GoLang",
    "color": "#33cccc"
  },
  {
    "id": "401055069031890944",
    "name": "HTML5",
    "color": "#ffcc33"
  },
  {
    "id": "453787287617011722",
    "name": "React",
    "color": "#66ffff"
  },
  {
    "id": "401054649630588939",
    "name": "MongoDB",
    "color": "#33ff66"
  },
  {
    "id": "400744816784310272",
    "name": "Lvl 5",
    "color": "#1ABC9C"
  },
  {
    "id": "401054820452270080",
    "name": "Java",
    "color": "#ff9933"
  },
  {
    "id": "401054954447568897",
    "name": "Sass",
    "color": "#2ECC71"
  },
  {
    "id": "400744139878039552",
    "name": "Front End",
    "color": "#F1C40F"
  },
  {
    "id": "301773664959856669",
    "name": "Менеджер",
    "color": "#AD1457"
  },
  {
    "id": "402424650484940800",
    "name": "С",
    "color": "#66cccc"
  },
  {
    "id": "453787415304470530",
    "name": "Angular",
    "color": "#1ABC9C"
  },
  {
    "id": "400744705861877781",
    "name": "Lvl 1",
    "color": "#1ABC9C"
  },
  {
    "id": "401054519322214420",
    "name": "TypeScript",
    "color": "#0099ff"
  },
  {
    "id": "301080610947203073",
    "name": "Копирайтер",
    "color": "#1ABC9C"
  },
  {
    "id": "407954752685735942",
    "name": "Росстат",
    "color": "#AD1457"
  },
  {
    "id": "401057439421562880",
    "name": "С++",
    "color": "#99cccc"
  },
  {
    "id": "279948586379247616",
    "name": "Заказчик",
    "color": "#A84300"
  },
  {
    "id": "401054765519208448",
    "name": "PHP",
    "color": "#666699"
  },
  {
    "id": "407954714823491596",
    "name": "ПФР",
    "color": "#71368A"
  },
  {
    "id": "273469488702423051",
    "name": "@everyone",
    "color": "#0"
  },
  {
    "id": "453787335113441304",
    "name": "Vue",
    "color": "#33ff99"
  },
  {
    "id": "274537339517403136",
    "name": "Администратор",
    "color": "#9B59B6"
  },
  {
    "id": "401054979915251713",
    "name": "Styles",
    "color": "#1F8B4C"
  },
  {
    "id": "492806063637397547",
    "name": "GoogleScript",
    "color": "#66ccff"
  },
  {
    "id": "273755018132324352",
    "name": "Директ",
    "color": "#206694"
  },
  {
    "id": "401055113935847434",
    "name": "WebSocket",
    "color": "#C27C0E"
  },
  {
    "id": "273626723743039489",
    "name": "СЕО",
    "color": "#206694"
  },
  {
    "id": "470665197426835476",
    "name": "blockchain",
    "color": "#95A5A6"
  },
  {
    "id": "401415753301229569",
    "name": "Delphi 7",
    "color": "#66ccff"
  },
  {
    "id": "421576601751519243",
    "name": "1С Soft Club",
    "color": "#ff0000"
  },
  {
    "id": "401415466943250444",
    "name": "Ruby/RoR",
    "color": "#ff6666"
  },
  {
    "id": "402172767954272258",
    "name": "Project WSV-Group",
    "color": "#F1C40F"
  },
  {
    "id": "446029014847717387",
    "name": "ASP .NET",
    "color": "#663399"
  },
  {
    "id": "414844213914632193",
    "name": "Создатель",
    "color": "#71368A"
  },
  {
    "id": "416266311669383169",
    "name": "Опытный",
    "color": "#FFF5"
  },
  {
    "id": "423099647222087680",
    "name": "Мама Создателя",
    "color": "#71368A"
  },
  {
    "id": "401414912376569856",
    "name": "Python/Django",
    "color": "#66cccc"
  },
  {
    "id": "466640066253684736",
    "name": "Helpers",
    "color": "#A84300"
  },
  {
    "id": "401057479762640901",
    "name": "С#",
    "color": "#993399"
  },
  {
    "id": "407954669554630656",
    "name": "ЕГАИС",
    "color": "#1F8B4C"
  },
  {
    "id": "401054579199836161",
    "name": "NodeJS",
    "color": "#66ff66"
  },
  {
    "id": "407953753279430656",
    "name": "Сис. аналитика",
    "color": "#9B59B6"
  },
  {
    "id": "416204454715719681",
    "name": "Новичек",
    "color": "#1F8B4C"
  },
  {
    "id": "453786244418240533",
    "name": "Python",
    "color": "#66cccc"
  },
  {
    "id": "400744205418364929",
    "name": "Designer",
    "color": "#2ECC71"
  },
  {
    "id": "407954806964224000",
    "name": "ФНС",
    "color": "#C27C0E"
  },
  {
    "id": "400744739739140096",
    "name": "Lvl 2",
    "color": "#1ABC9C"
  }
]